[
	{
		"id_str": 835732417113534500,
		"created_at": "2017-02-26T06:05:10.000Z",
		"full_text": "See all your branches around SYD!!!",
		"in_reply_to_status_id": null
	},
	{
		"id_str": 903023999805825000,
		"created_at": "2017-08-30T22:37:53.000Z",
		"full_text": "I'm going to Taichung,Taiwan soon. Will I be able to get cash from an ATM? What are the fees/exchange rates like this way?",
		"in_reply_to_status_id": null
	},
	{
		"id_str": 867246690138554400,
		"created_at": "2017-05-24T05:11:38.000Z",
		"full_text": "Does the new Martin Pl branch have coin counting? Have a lot of 20, 10 and 5 ¢ coins to get rid of.",
		"in_reply_to_status_id": null
	},
	{
		"id_str": 836480001750945800,
		"created_at": "2017-02-28T07:35:48.000Z",
		"full_text": "Hi, the ANZ Shield app doesn't appear to be available on the Apple App Store? The website link goes to a different ANZ app also.",
		"in_reply_to_status_id": null
	},
	{
		"id_str": 870200082284503000,
		"created_at": "2017-06-01T08:47:21.000Z",
		"full_text": "hang your heads in shame. Giving a young adult of 20 years old a $16,500 credit card. He only earns $20,000.",
		"in_reply_to_status_id": null
	},
	{
		"id_str": 833241122436550700,
		"created_at": "2017-02-19T09:05:39.000Z",
		"full_text": "@ANZ_NZ_Media @ANZ_Media #anz #sincity trying to redeem themselves https://t.co/avV4w5eEcB",
		"in_reply_to_status_id": null
	},
	{
		"id_str": 876720698374332400,
		"created_at": "2017-06-19T08:37:57.000Z",
		"full_text": "acted on my behalf without permission. Then refused to sort it out - 'you're not an ANZ customer'. Nor will I be!",
		"in_reply_to_status_id": null
	}
]